-64 920
80 -24 -72 792
96 -80 800
40 -8 -80 -64 -80 -40 632
64 -40 -64 -80 -56 648
-8 56 -80 -72 -40 -80 -80 520
-32 -16 -80 -48 -48 -72 -32 608
48 -48 -64 808
48 -72 856
32 -24 -72 840
16 -80 -72 -64 -24 -32 -64 584
32 -40 -72 -8 -24 776
-8 976
48 -80 -72 -8 -8 -8 -8 -64 632
32 -8 -64 -64 -48 -40 -40 640
-80 -32 864
16 -40 920
-72 -72 832
-72 -16 888
32 -80 -40 816
24 -8 -40 896
-80 -32 -64 792
8 -24 40 -64 -80 736
56 -16 -8 -40 -40 -24 -48 704
-40 944
-16 -8 -32 -64 -40 -56 -8 -32 -48 616
24 -8 -72 864
-32 -16 16 -48 -80 -48 -64 -40 -32 544
