328 -8 -96 -24 504
8 -8 8 -8 928
992
992
-8 -8 -48 -16 152 -40 -256 -24 376
16 -168 792
992
992
64 -16 -16 872
64 -16 -16 872
216 -32 -16 -16 680
24 -64 568 -16 288
72 -16 888
24 -24 -64 -16 -16 808
24 -16 -16 -16 -40 -256 -24 -64 -16 -16 424
-40 -40 -40 848
-24 -64 16 -544 312
-40 -8 240 -24 648
-40 8 -24 -24 176 -24 648
-24 960
