22

1

1
2

1
2
3
-2

6
1
3
5
-1
3
5

4
1
-2
1
3
4
-2

100
-1

100
-1
20
20
20
-1
-1
-1
20
20
20

1
1
1
1
1
-1
-1
-1
-1
-1

1
2
3
4
5
6
7
8
9
10
11
12

1
2
3
4
5
-1
-1
-1
-1

11
3
26
1
23
-2
-3
-1

7
7
-2
10
-1

6
4
3
2
4
5
6
-2
-3
-4
-1

10
20
30
40
-1
-1
-1
-1
5
10
15
20
-1
-1
-1
-1

4
2
4
2
4
2
4
2
4
2
4
2
4

1
2
3
4
5
6
7
8
9
10

10
9
8
7
6
5
4
3
2
1

18
3
4
5
1
-2
-3
-1

19
5
4
13
6
1
-2
-4
-1

20
1
1
1
1
1
1
-3
-4
-1
-3

20
30
40

22
22
-1
-1
1
2
3
4
5
-5
-4
-3
-2
-1
