24

87
25
3
-3
-1
-1
53
54
5
7

7
76
34
-3
13
-3
-2
-1
39
30

23
64
-2
16
18
45
-1
-3
27
5

88
21
8
2
-1
-1
-2
-1
76
-1

32
11
12
-1
13
-2
32
-3
-2
-1

5
104
7
1
2
-2
87
4
-5
-3

33
-1
58
21
-1
-1
42
-1
53
47

63
-1
89
20
-1
46
7
16
-3
-2

66
-1
5
-1
113
-1
116
5
-1
64

41
-1
70
51
-1
-1
9
-1
24
31

5
-1
15
-1
122
-1
58
-1
74
3

85
23
7
-3
3
-1
-2
44
28
-3

31
11
20
41
11
3
-5
-5
13
3

97
23
-2
-1
5
68
-2
-1
51
-1

10
-1
23
-1
25
-1
7
104
1
7

113
-1
107
-1
53
-1
116
-1
8
-1

121
-1
77
-1
60
59
-1
57
1
2

106
11
-1
-1
116
7
-2
-1
79
-1

82
34
-2
-1
83
13
22
-3
-2
-1

65
58
-1
-1
39
-1
124
-1
46
7

37
51
-1
-1
102
5
9
1
-4
3

71
-1
29
35
45
-3
38
-3
-2
41

4
-1
41
-1
91
-1
8
45
-2
-1

43
49
26
-1
-2
40
5
-2
20
2
