-424 -432 -40 -56 8
-312 -240 424
-40 136 -128 -144 -216 288
992
992
-40 -696 128 -56 8 -24
-424 -376 176
-368 336 -160 104
-512 408 -40 8
-192 -248 536
-592 -24 360
-352 -224 400
-248 -88 -160 -328 -104 -24
992
-56 -832 -8 -56 8
992
-456 -16 -472 -24
992
992
-368 -56 552
-816 -40 -72 -24 8
-232 -328 416
992
-320 -160 -16 224 -40 192
