992
-64 136 -64 704
992
176 -32 -72 32 -480 160
-992
-992
-24 -32 56 -80 768
-24 960
992
-16 -16 -32 -48 -64 56 -96 -112 488
-320 8 -16 -24 -32 552
32 -32 -8 -16 -24 -32 368 -24 392
-24 -64 104 -16 -40 -48 -16 -48 568
-8 -32 -8 -32 880
-24 -16 -16 -16 16 -8 -48 -48 -48 -48 -48 -32 -32 -32 -40 -40 -40 -40 256
-240 -8 -16 -24 -16 648
8 -16 24 -8 16 -24 32 -16 -24 -32 712
16 -32 48 -64 -80 -96 112 -128 352
-80 -80 -80 -24 8 -40 -8 -8 -8 -24 -40 504
-8 8 -8 -24 -24 -40 832
