-16 -40 224 -8 672
-32 -32 912
992
24 -16 112 -32 -48 32 -512 160
32 -32 -24 -272 600
32 -56 888
-48 -56 -16 848
992
96 -432 -48 -32 352
352 -40 -216 -120 232
-24 96 -48 -32 760
32 -40 -32 32 -48 -504 256
-40 -32 48 -40 -48 32 -48 648
-16 -16 -24 -32 24 -40 -56 -32 80 -40 552
16 -32 928
-32 96 -56 -40 736
-360 624
-24 72 -32 840
-32 104 -352 -32 440
40 -16 -16 104 -496 280
-24 112 -24 -40 -24 -40 -280 -40 344
-32 -48 32 -48 800
