20

17
9
4
2
5
4
1
9
-5
-2
-1

7
2
8
1
3
2
5
4
-5
-1
-1

6
1
2
13
6
-4
-3

13
9
5
4
-3

10
4
11
4
2
9
9
2
12
-2
-2
-4

10
4
2
3
4
5
13
-1
-3
-3
-3

8
9
1
7
-1
-2

16
5
2
4
1
4
-3
-1
-2
-2

9
14
3
1
2
5
2
4
7
13
-1
-4
-2

2
13
2
8
1
15
4
12
-2
-2

4
12
5
14
15
1
-4
-1
-1
-3

4
15
8
8
18
10
-4
-3
-3

14
6
17
19
11
11
8
-3
-2
-2

19
7
8
2
14
8
14
-4
-1
-2
-1

7
18
9
10
18
7
-4
-2
-3
-2

13
3
3
-3
-1

9
11
14
9
6
12
20
8
-5
-4
-4

2
4
12
3
4
14
5
-2
-4
-1

8
20
2
-3
-1

12
3
12
14
-3
-3
-2
