25

7
3
4
5
5

8
3
2
3
4
-2
-1
5

5
2
5
-1

5
3
3
-1
-1
5
6

5
3
2
5
-1
2
4
-3
1
2

5
6
7
2
-4
2
-4
-1
5

1
6
3
6
3

4
6
7
8
-2
-1
-1
-1

2
4
5
6
-3

7
8
5
4
-2

3
2
4
5
6
2
-1
-3
-2
1
2

5
10
-1

3
3
5
6
-1
2
4
-4

3
2
4
5
-2

1
3
8
4
2
-4
-3
8

4
2
4
-2
-1
7
9

2
2
3
4
5
-3
3
4
2

2
4
5
6
7
2
-2

2
4
3
2
5

4
2
2
3
6
-2
-4
-1

10
4
-1
6

2
5
2
5

3
-1
2
-1
10
-1
12
2
3
-2

1
2
3
4
5
6
7
-2
2
-3
3
-4
2
2

2
4
2
2
-3
8
